com\degoos\achievements\editor\EditorHotbarRunnable.class
com\degoos\achievements\manager\PlayerManager.class
com\degoos\achievements\command\subcommand\AMSubcommandHelp.class
com\degoos\achievements\manager\PluginManager.class
com\degoos\achievements\editor\solo\RunnableSoloAchievement.class
com\degoos\achievements\Achievements.class
com\degoos\achievements\editor\main\PluginList.class
com\degoos\achievements\editor\progress\RunnableProgressSummary.class
com\degoos\achievements\loader\ManagerLoader.class
com\degoos\achievements\object\ProgressAchievement.class
com\degoos\achievements\editor\general\HotbarRunnableBack.class
com\degoos\achievements\editor\main\RunnablePlugin.class
com\degoos\achievements\editor\solo\SoloList$1.class
com\degoos\achievements\manager\FileManager.class
com\degoos\achievements\editor\solo\SoloList.class
com\degoos\achievements\command\subcommand\AMSubCommandDelete.class
com\degoos\achievements\editor\plugin\RunnableSoloAchievements.class
com\degoos\achievements\command\AchievementCommand.class
com\degoos\achievements\editor\progress\ProgressList.class
com\degoos\achievements\manager\ListenerManager.class
com\degoos\achievements\object\APlayer.class
com\degoos\achievements\command\AchievementManagerCommand.class
com\degoos\achievements\manager\Manager.class
com\degoos\achievements\object\SoloAchievement.class
com\degoos\achievements\command\subcommand\AMSubCommandSet.class
com\degoos\achievements\editor\progress\ProgressList$1.class
com\degoos\achievements\manager\DatabaseManager.class
com\degoos\achievements\editor\Editor.class
com\degoos\achievements\command\subcommand\AMSubCommandCreate.class
com\degoos\achievements\editor\general\RunnableBack.class
com\degoos\achievements\editor\plugin\RunnableProgressAchievements.class
com\degoos\achievements\editor\plugin\PluginTypeSelector$1.class
com\degoos\achievements\editor\plugin\PluginTypeSelector.class
com\degoos\achievements\listener\LoginListener.class
com\degoos\achievements\editor\EditorRunnable.class
com\degoos\achievements\manager\AchievementManager.class
com\degoos\achievements\api\AchievementAPI.class
com\degoos\achievements\editor\solo\RunnableSoloSummary.class
com\degoos\achievements\editor\progress\RunnableProgressAchievement.class
com\degoos\achievements\manager\MessageManager.class
com\degoos\achievements\object\Achievement.class
